{
    "version": "https://jsonfeed.org/version/1",
    "title": "test-gitlab",
    "description": "",
    "home_page_url": "https://enanwn.gitlab.io/publii",
    "feed_url": "https://enanwn.gitlab.io/publii/feed.json",
    "user_comment": "",
    "author": {
        "name": "nanwn"
    },
    "items": [
    ]
}
